{"page":1,"total_results":44,"total_pages":3,"results":[{"vote_count":3776,"id":953,"video":false,"vote_average":6.6,"title":"Madagascar","popularity":33.870615,"poster_path":"\/2YiESGB68BGQSAFvfJxBi774sc4.jpg","original_language":"en","original_title":"Madagascar","genre_ids":[10751,16],"backdrop_path":"\/wUetiqu2EFhHW94yTP0pWABfyUG.jpg","adult":false,"overview":"Alex the lion is the king of the urban jungle, the main attraction at New York's Central Park Zoo. He and his best friends -- Marty the zebra, Melman the giraffe and Gloria the hippo -- have spent their whole lives in blissful captivity before an admiring public and with regular meals provided for them. Not content to leave well enough alone, Marty lets his curiosity get the better of him and makes his escape -- with the help of some prodigious penguins -- to explore the world.","release_date":"2005-05-25"},{"vote_count":1481,"id":270946,"video":false,"vote_average":6.4,"title":"Penguins of Madagascar","popularity":39.423244,"poster_path":"\/pRer59eyY4rjkLPeKXKo7fPxCHH.jpg","original_language":"en","original_title":"Penguins of Madagascar","genre_ids":[10751,16,12,35],"backdrop_path":"\/fBYnaVOcc2Ghfkv473z0xdBRQ0m.jpg","adult":false,"overview":"Skipper, Kowalski, Rico and Private join forces with undercover organization The North Wind to stop the villainous Dr. Octavius Brine from destroying the world as we know it.","release_date":"2014-11-22"},{"vote_count":2134,"id":10527,"video":false,"vote_average":6.2,"title":"Madagascar: Escape 2 Africa","popularity":30.274327,"poster_path":"\/9mohxwknsHcwFBSAAhoQXwFV5zn.jpg","original_language":"en","original_title":"Madagascar: Escape 2 Africa","genre_ids":[10751,16],"backdrop_path":"\/anxiz37Z9FPKeuCsJcxViSWmPxg.jpg","adult":false,"overview":"Alex, Marty, and other zoo animals find a way to escape from Madagascar when the penguins reassemble a wrecked airplane. The precariously repaired craft stays airborne just long enough to make it to the African continent. There the New Yorkers encounter members of their own species for the first time. Africa proves to be a wild place, but Alex and company wonder if it is better than their Central Park home.","release_date":"2008-10-30"},{"vote_count":67,"id":25472,"video":false,"vote_average":6.3,"title":"Merry Madagascar","popularity":11.574805,"poster_path":"\/yb8X45eBtkcEWfcQLdVlTE82pLE.jpg","original_language":"en","original_title":"Merry Madagascar","genre_ids":[10751,16],"backdrop_path":"\/bIA6DNEf3luPT9T5RzLVkBkXMNq.jpg","adult":false,"overview":"The Zoosters are back in an all-new holiday adventure. When Santa and his reindeer crash onto the island of Madagascar it's up to Alex, Marty, Gloria, Melman and those wacky penguins to save Christmas. Get ready for a sleigh full of laughs in this hilarious new holiday classic.","release_date":"2009-11-16"},{"vote_count":44,"id":161143,"video":false,"vote_average":5.9,"title":"Madly Madagascar","popularity":10.123596,"poster_path":"\/2BryHTAzdSPi7KR9B9UnkDLCkm8.jpg","original_language":"en","original_title":"Madly Madagascar","genre_ids":[16,35,10751],"backdrop_path":"\/fTBhQtwxqi7skX5hQ6fvjl8H1H6.jpg","adult":false,"overview":"Your favorite Madagascar pals are back in an all-new adventure! Alex's favorite holiday, Valentine's Day, brings hilarious surprises and excitement for the entire gang. Melman plans a big surprise for Gloria, Marty tries to impress a new friend and everyone wants to get their hands on King Julien's love potion. You'll fall in LOVE with Madly Madagascar!","release_date":"2013-01-29"},{"vote_count":2079,"id":80321,"video":false,"vote_average":6.4,"title":"Madagascar 3: Europe's Most Wanted","popularity":35.831028,"poster_path":"\/wd7NcMifnuf66gD2Fm7Tzz3yJ54.jpg","original_language":"en","original_title":"Madagascar 3: Europe's Most Wanted","genre_ids":[16,10751],"backdrop_path":"\/alkQ9DQJdZutBCKdEHXUVCZnuAF.jpg","adult":false,"overview":"Animal pals Alex, Marty, Melman, and Gloria are still trying to make it back to New York's Central Park Zoo. They are forced to take a detour to Europe to find the penguins and chimps who broke the bank at a Monte Carlo casino. When French animal-control officer Capitaine Chantel DuBois picks up their scent, Alex and company are forced to hide out in a traveling circus.","release_date":"2012-06-06"},{"vote_count":4,"id":62403,"video":false,"vote_average":8.6,"title":"Madagascar","popularity":1.401867,"poster_path":"\/kR2NzLQspU8HATvvd44wyeoixYD.jpg","original_language":"en","original_title":"Madagascar","genre_ids":[99,10769],"backdrop_path":null,"adult":false,"overview":"On the east side of the island, rugged mountains rise dramatically from the palm fringed Indian Ocean. These uplands catch drenching rains almost all year round - steep and inaccessible, they are the most diverse part of the island. \"Lost Worlds\" travels from the highest mountains, where trees are few and it's cold enough for frost, through the lush, cloaking rainforests, down to the tropical coast, discovering the ringtailed lemurs, the jeweled geckos and the predatory wasps. So what is it that has made this narrow eastern strip in particular so rich in life?","release_date":"2011-02-16"},{"vote_count":1,"id":389430,"video":false,"vote_average":5,"title":"Madagascar","popularity":1.073368,"poster_path":"\/jryPBqUSEwm4edJQaF6Xcoy6KBL.jpg","original_language":"es","original_title":"Madagascar","genre_ids":[],"backdrop_path":null,"adult":false,"overview":"The 50-minute \"Madagascar\" has the resonance and eloquence of the best poetry, as it deftly turns an adolescent's search for identity into a metaphor for post-revolutionary Cuba. Laura is a professor at a shabby, stultifying college. Her daughter, Laurita, stops going to school, wishes to move to Madagascar and quickly races through several phases. One day, she looks like a heavy-metal fan, another like a bohemian who weeps at poetry and art. Slowly, she crosses the line from ordinary adolescent confusion to intense neurosis and beyond, finally becoming so obsessed with religion and good works that she brings 10 homeless children into the cramped house she shares with her mother and grandmother.","release_date":"1995-03-01"},{"vote_count":1,"id":346655,"video":false,"vote_average":0,"title":"Madagascar 4","popularity":2.404033,"poster_path":null,"original_language":"en","original_title":"Madagascar 4","genre_ids":[16],"backdrop_path":null,"adult":false,"overview":"Plot unknown.","release_date":"2018-05-18"},{"vote_count":10,"id":240704,"video":false,"vote_average":4.8,"title":"Island of Lemurs: Madagascar","popularity":5.331415,"poster_path":"\/v1IRDwU1CEqNSwFdJldKB5Kywg.jpg","original_language":"en","original_title":"Island of Lemurs: Madagascar","genre_ids":[99],"backdrop_path":"\/sjA2k8DCKI9pBTeqSqRZKhK3cAG.jpg","adult":false,"overview":"Academy Award winner Morgan Freeman (“Million Dollar Baby”) narrates the documentary about the incredible true story of nature’s greatest explorers—lemurs. Captured with IMAX 3D cameras, “Island of Lemurs: Madagascar” takes audiences on a spectacular journey to the remote and wondrous world of Madagascar. Lemurs arrived there as castaways millions of years ago and evolved into hundreds of diverse species but are now highly endangered. Join trailblazing scientist Patricia Wright on her lifelong mission to help these strange and adorable creatures survive in the modern world","release_date":"2014-04-03"},{"vote_count":68,"id":10258,"video":false,"vote_average":6.5,"title":"The Madagascar Penguins in a Christmas Caper","popularity":5.922102,"poster_path":"\/oBLgmQXZPP5QjGPfN3Y22e9pldW.jpg","original_language":"en","original_title":"The Madagascar Penguins in a Christmas Caper","genre_ids":[16,35,10751],"backdrop_path":"\/adfDHDLCiMuvmJzbGMAEJ6j9oQR.jpg","adult":false,"overview":"During the holiday season, when the animals of the Central Park Zoo are preparing for Christmas, Private, the youngest of the penguins notices that the Polar Bear is all alone. Assured that nobody should have to spend Christmas alone, Private goes into the city for some last-minute Christmas shopping. Along the way, he gets stuffed into a stocking","release_date":"2005-09-23"},{"vote_count":4,"id":150298,"video":false,"vote_average":7.3,"title":"Madagascar, a Journey Diary","popularity":1.6107,"poster_path":"\/p8ljeWs5EPuJDd4ak5iJRbREaHS.jpg","original_language":"nl","original_title":"Madagascar, carnet de voyage","genre_ids":[16],"backdrop_path":"\/aLso9jfIvPpFVkBtRW90WUEUk5w.jpg","adult":false,"overview":"Filmed like the travel journey of a Western traveler in search of Madagascar's customs. The pages turn, the drawings come to life, and the luxuriant landscapes of Madagascar appear one after another.","release_date":"2010-01-24"},{"vote_count":0,"id":484963,"video":false,"vote_average":0,"title":"Songs for Madagascar","popularity":1.880896,"poster_path":"\/bTEFlgDvOTc5p27CkMWJUQYAkXw.jpg","original_language":"fr","original_title":"Songs for Madagascar","genre_ids":[10402,99],"backdrop_path":null,"adult":false,"overview":"","release_date":"2017-11-09"},{"vote_count":2,"id":217117,"video":false,"vote_average":7.5,"title":"Madagascar 3D","popularity":1.156113,"poster_path":"\/vzmBfjvH5zEien8nhu8mvbo2rWp.jpg","original_language":"en","original_title":"Madagascar 3D","genre_ids":[99],"backdrop_path":"\/ycVJ6Bqi1KcYpQiYiimzXg2TJbt.jpg","adult":false,"overview":"Conditioned by its long lasting geographical isolation Madagascar is home to unique Fauna and Flora, with a high percentage of endemic species. Due to the lack of predators, monkeys and poisonous snakes on the island, extraordinary animal species like the funny lemurs were able to develop in a unique way.","release_date":"2013-08-26"},{"vote_count":2,"id":268357,"video":true,"vote_average":7,"title":"The Penguins of Madagascar: New to the Zoo","popularity":2.477591,"poster_path":"\/3iL14RCHUyHVaUExfu9jJH0jp5p.jpg","original_language":"en","original_title":"The Penguins of Madagascar: New to the Zoo","genre_ids":[10751,16,35,12],"backdrop_path":"\/fWAQMFwPPlWoBhq5TX5vm7lO8vN.jpg","adult":false,"overview":"The madcap pack of Penguins and everyone's favourite lemur, King Julien star in episodes which each introduce a new character to the zoo. Episodes included are: In The Line Of Doody, The Big Squeeze, Out Of The Groove, Skorka!, The Red Squirrel, Jiggles, Untouchable and Cat's Cradle.","release_date":"2010-08-10"},{"vote_count":0,"id":344731,"video":false,"vote_average":0,"title":"Guitar Madagascar","popularity":1.040149,"poster_path":null,"original_language":"en","original_title":"Guitar Madagascar","genre_ids":[10402,99],"backdrop_path":null,"adult":false,"overview":"No Overview.","release_date":"2015-06-20"},{"vote_count":0,"id":172868,"video":false,"vote_average":0,"title":"Madagascar Skin","popularity":1.003944,"poster_path":"\/sO4lasAsXBDo78B7v7E9DNIrl3j.jpg","original_language":"en","original_title":"Madagascar Skin","genre_ids":[],"backdrop_path":null,"adult":false,"overview":"This is the story of Harry and Flint, an unlikely couple. Harry is a shy young gay man who can't seem to fit into his local bar scene. Flint is a crusty, older, and seemingly straight man with a questionable background. They meet on a gorgeous coastline, and evolve from distrust to deep love.","release_date":"1995-01-26"},{"vote_count":0,"id":431265,"video":false,"vote_average":0,"title":"Bienvenue à Madagascar","popularity":1.067219,"poster_path":"\/rrHXOGZ9y5FgDBwKY2KBhYVSxSl.jpg","original_language":"fr","original_title":"Bienvenue à Madagascar","genre_ids":[99],"backdrop_path":null,"adult":false,"overview":"documentary movie","release_date":"2017-03-15"},{"vote_count":0,"id":388598,"video":false,"vote_average":0,"title":"Legends of Madagascar","popularity":1.007059,"poster_path":"\/iYyJkufwhxo7NgnJS1NysbPueic.jpg","original_language":"mg","original_title":"Malagasy Mankany","genre_ids":[],"backdrop_path":null,"adult":false,"overview":"Malagasy Mankany is a colorful and entertaining dramedy-adventure set in Madagascar about three sociology students named Jimi, Bob and Dylan. When Jimi's father becomes suddenly ill and nears death in his home village, the three friends embark on a journey of a lifetime from the capital of Madagascar to the deep countryside to bring assistance to Jimi's family. On the road trip, the trio encounters off the wall characters that embody the spirit of the island of Madagascar. Their journey ends with each of them standing at the very edge of their future, which brings them not only face to face with their own fate but the fate of their country.","release_date":"2012-01-01"},{"vote_count":5,"id":259995,"video":false,"vote_average":5,"title":"Angano... Angano... Tales from Madagascar","popularity":1.202534,"poster_path":"\/ddHjpoB0HxLii0r0QrHyL0j2hWn.jpg","original_language":"en","original_title":"Angano... Angano... nouvelles de Madagascar","genre_ids":[99],"backdrop_path":null,"adult":false,"overview":"Venerable storytellers recount for the camera and their listeners the founding myths of Malagasy culture.","release_date":"1989-03-04"}]}